{
  "development": {
    "username": "riliv_admin",
    "password": "riliv",
    "database": "riliv_test",
    "host": "127.0.0.1",
    "dialect": "postgres",
    "operatorsAliases": false
  },
  "test": {
    "username": "riliv_admin",
    "password": "riliv",
    "database": "riliv_test",
    "host": "127.0.0.1",
    "dialect": "postgres",
    "operatorsAliases": false
  },
  "production": {
    "username": "riliv_admin",
    "password": "riliv",
    "database": "riliv_test",
    "host": "127.0.0.1",
    "dialect": "postgres",
    "operatorsAliases": false
  }
}